\relax 
\providecommand\hyper@newdestlabel[2]{}
\@writefile{toc}{\contentsline {section}{\numberline {2.2}Jocul efectiv}{4}{section.2.2}}
\newlabel{group__group__jocul__efectiv}{{2.2}{4}{Jocul efectiv}{section.2.2}{}}
\@setckpt{group__group__jocul__efectiv}{
\setcounter{page}{5}
\setcounter{equation}{0}
\setcounter{enumi}{0}
\setcounter{enumii}{0}
\setcounter{enumiii}{0}
\setcounter{enumiv}{0}
\setcounter{footnote}{0}
\setcounter{mpfootnote}{0}
\setcounter{part}{0}
\setcounter{chapter}{2}
\setcounter{section}{2}
\setcounter{subsection}{0}
\setcounter{subsubsection}{0}
\setcounter{paragraph}{0}
\setcounter{subparagraph}{0}
\setcounter{figure}{0}
\setcounter{table}{0}
\setcounter{float@type}{4}
\setcounter{LT@tables}{0}
\setcounter{LT@chunks}{0}
\setcounter{NAT@ctr}{0}
\setcounter{lofdepth}{1}
\setcounter{lotdepth}{1}
\setcounter{Item}{0}
\setcounter{Hfootnote}{0}
\setcounter{bookmark@seq@number}{4}
\setcounter{ContinuedFloat}{0}
\setcounter{section@level}{1}
}
