\relax 
\providecommand\hyper@newdestlabel[2]{}
\providecommand\HyperFirstAtBeginDocument{\AtBeginDocument}
\HyperFirstAtBeginDocument{\ifx\hyper@anchor\@undefined
\global\let\oldcontentsline\contentsline
\gdef\contentsline#1#2#3#4{\oldcontentsline{#1}{#2}{#3}}
\global\let\oldnewlabel\newlabel
\gdef\newlabel#1#2{\newlabelxx{#1}#2}
\gdef\newlabelxx#1#2#3#4#5#6{\oldnewlabel{#1}{{#2}{#3}}}
\AtEndDocument{\ifx\hyper@anchor\@undefined
\let\contentsline\oldcontentsline
\let\newlabel\oldnewlabel
\fi}
\fi}
\global\let\hyper@last\relax 
\gdef\HyperFirstAtBeginDocument#1{#1}
\providecommand\HyField@AuxAddToFields[1]{}
\providecommand\HyField@AuxAddToCoFields[2]{}
\providecommand \oddpage@label [2]{}
\babel@aux{romanian}{}
\@writefile{toc}{\contentsline {chapter}{\numberline {1}Omida}{1}{chapter.1}}
\@writefile{lof}{\addvspace {10\p@ }}
\@writefile{lot}{\addvspace {10\p@ }}
\newlabel{index}{{1}{1}{Omida}{chapter.1}{}}
\@writefile{toc}{\contentsline {chapter}{\numberline {2}Cum se joaca?}{3}{chapter.2}}
\@writefile{lof}{\addvspace {10\p@ }}
\@writefile{lot}{\addvspace {10\p@ }}
\newlabel{cum_se_joaca}{{2}{3}{Cum se joaca?}{chapter.2}{}}
\@writefile{toc}{\contentsline {section}{\numberline {2.1}Meniu start}{3}{section.2.1}}
\newlabel{group__group__meniu__start}{{2.1}{3}{Meniu start}{section.2.1}{}}
\@input{group__group__jocul__efectiv.aux}
\@input{group__group__pauza.aux}
\@input{group__group__final.aux}
\@writefile{toc}{\contentsline {chapter}{\numberline {3}Cum functioneaza?}{7}{chapter.3}}
\@writefile{lof}{\addvspace {10\p@ }}
\@writefile{lot}{\addvspace {10\p@ }}
\newlabel{cum_functioneaza}{{3}{7}{Cum functioneaza?}{chapter.3}{}}
\@input{group__group__deseneaza__pe__ecran.aux}
\@input{group__group__cum__reprezint__obiectele.aux}
\@input{group__group__meniuri.aux}
\@input{group__group__main__loop.aux}
\@writefile{toc}{\contentsline {chapter}{\numberline {4}La ce ajuta?}{13}{chapter.4}}
\@writefile{lof}{\addvspace {10\p@ }}
\@writefile{lot}{\addvspace {10\p@ }}
\newlabel{la_ce_ajuta}{{4}{13}{La ce ajuta?}{chapter.4}{}}
\@writefile{toc}{\contentsline {chapter}{\numberline {5}Extra}{15}{chapter.5}}
\@writefile{lof}{\addvspace {10\p@ }}
\@writefile{lot}{\addvspace {10\p@ }}
\newlabel{extra}{{5}{15}{Extra}{chapter.5}{}}
\@writefile{toc}{\contentsline {chapter}{\numberline {6}Indexul Namespace-\/ului}{17}{chapter.6}}
\@writefile{lof}{\addvspace {10\p@ }}
\@writefile{lot}{\addvspace {10\p@ }}
\@writefile{toc}{\contentsline {section}{\numberline {6.1}Lista de Namespace-\/uri}{17}{section.6.1}}
\@writefile{toc}{\contentsline {chapter}{\numberline {7}Index Ierarhic}{19}{chapter.7}}
\@writefile{lof}{\addvspace {10\p@ }}
\@writefile{lot}{\addvspace {10\p@ }}
\@writefile{toc}{\contentsline {section}{\numberline {7.1}Ierarhia Claselor}{19}{section.7.1}}
\@writefile{toc}{\contentsline {chapter}{\numberline {8}Indexul Claselor}{21}{chapter.8}}
\@writefile{lof}{\addvspace {10\p@ }}
\@writefile{lot}{\addvspace {10\p@ }}
\@writefile{toc}{\contentsline {section}{\numberline {8.1}Lista Claselor}{21}{section.8.1}}
\@writefile{toc}{\contentsline {chapter}{\numberline {9}Indexul Fi\IeC {\c s}ierelor}{23}{chapter.9}}
\@writefile{lof}{\addvspace {10\p@ }}
\@writefile{lot}{\addvspace {10\p@ }}
\@writefile{toc}{\contentsline {section}{\numberline {9.1}Lista fi\IeC {\c s}ierelor}{23}{section.9.1}}
\@writefile{toc}{\contentsline {chapter}{\numberline {10}Documenta\IeC {\c t}ia Namespace-\/ului}{25}{chapter.10}}
\@writefile{lof}{\addvspace {10\p@ }}
\@writefile{lot}{\addvspace {10\p@ }}
\@writefile{toc}{\contentsline {section}{\numberline {10.1}Referin\IeC {\c t}\IeC {\u a} la Namespace-\/ul global}{25}{section.10.1}}
\newlabel{namespaceglobal}{{10.1}{25}{Referinţă la Namespace-\/ul global}{section.10.1}{}}
\newlabel{namespaceglobal_a07963dc89966c80411e6a3c896c07c10}{{10.1}{25}{Variabile}{section*.2}{}}
\newlabel{namespaceglobal_a5ad71f80dc82eb6fd1036c8055a5dfbc}{{10.1}{25}{Variabile}{section*.2}{}}
\newlabel{namespaceglobal_a612e7b296f148c02400618f1770f57f7}{{10.1}{25}{Variabile}{section*.2}{}}
\@writefile{toc}{\contentsline {subsection}{\numberline {10.1.1}Descriere Detaliat\IeC {\u a}}{25}{subsection.10.1.1}}
\@writefile{toc}{\contentsline {subsection}{\numberline {10.1.2}Documenta\IeC {\c t}ia variabilelor}{25}{subsection.10.1.2}}
\newlabel{namespaceglobal_ae80ab1c7d78e562614d35c3b78e44ea3}{{10.1.2}{25}{Documentaţia variabilelor}{subsection.10.1.2}{}}
\@writefile{toc}{\contentsline {subsubsection}{\numberline {10.1.2.1}desenator}{25}{subsubsection.10.1.2.1}}
\newlabel{namespaceglobal_a930b1255fa49cd41dc635136822d56ee}{{10.1.2.1}{25}{\texorpdfstring {desenator}{desenator}}{subsubsection.10.1.2.1}{}}
\@writefile{toc}{\contentsline {subsubsection}{\numberline {10.1.2.2}fereastra\discretionary {\unhbox \voidb@x \hbox {\relax \fontsize  {7}{8}\selectfont  $\leftarrow \joinrel  \rhook $}}{}{}\_\discretionary {\unhbox \voidb@x \hbox {\relax \fontsize  {7}{8}\selectfont  $\leftarrow \joinrel  \rhook $}}{}{}inchisa}{26}{subsubsection.10.1.2.2}}
\newlabel{namespaceglobal_af4564594d950b73d4bb81b8c0a4fe029}{{10.1.2.2}{26}{\texorpdfstring {fereastra\+\_\+inchisa}{fereastra\_inchisa}}{subsubsection.10.1.2.2}{}}
\@writefile{toc}{\contentsline {subsubsection}{\numberline {10.1.2.3}scene}{26}{subsubsection.10.1.2.3}}
\newlabel{namespaceglobal_a6da5c1308adb9fdac1c61389b139dc54}{{10.1.2.3}{26}{\texorpdfstring {scene}{scene}}{subsubsection.10.1.2.3}{}}
\@writefile{toc}{\contentsline {subsubsection}{\numberline {10.1.2.4}taste\discretionary {\unhbox \voidb@x \hbox {\relax \fontsize  {7}{8}\selectfont  $\leftarrow \joinrel  \rhook $}}{}{}\_\discretionary {\unhbox \voidb@x \hbox {\relax \fontsize  {7}{8}\selectfont  $\leftarrow \joinrel  \rhook $}}{}{}apasate}{26}{subsubsection.10.1.2.4}}
\@writefile{toc}{\contentsline {chapter}{\numberline {11}Documenta\IeC {\c t}ia Claselor}{27}{chapter.11}}
\@writefile{lof}{\addvspace {10\p@ }}
\@writefile{lot}{\addvspace {10\p@ }}
\@writefile{toc}{\contentsline {section}{\numberline {11.1}Referin\IeC {\c t}\IeC {\u a} la clasa Joc}{27}{section.11.1}}
\newlabel{classJoc}{{11.1}{27}{Referinţă la clasa Joc}{section.11.1}{}}
\newlabel{classJoc_ad0030f6756f45c5ac98a61d8094bf60e}{{11.1}{28}{Metode Publice}{section*.5}{}}
\newlabel{classJoc_a8e709a64cfcd3277975fb58f1bff3cd1}{{11.1}{28}{Metode Private}{section*.6}{}}
\newlabel{classJoc_a548406580ddf763a17061190fba3756e}{{11.1}{28}{Metode Private}{section*.6}{}}
\newlabel{classJoc_a2b74a53ec4b88eb35c25da37c4cd4bb5}{{11.1}{28}{Atribute Private}{section*.7}{}}
\newlabel{classJoc_afda2880b237b18b8bdd4f25c5817adb4}{{11.1}{28}{Atribute Private}{section*.7}{}}
\newlabel{classJoc_ac92412a0e2de93936c4c600a7efe45f4}{{11.1}{28}{Atribute Private}{section*.7}{}}
\newlabel{classJoc_aec45d2779304b9ee3ba5c3962a66323b}{{11.1}{28}{Atribute Private}{section*.7}{}}
\newlabel{classJoc_a5b93484b69d553174400635eb36e3042}{{11.1}{28}{Atribute Private}{section*.7}{}}
\@writefile{toc}{\contentsline {subsection}{\numberline {11.1.1}Descriere Detaliat\IeC {\u a}}{28}{subsection.11.1.1}}
\@writefile{toc}{\contentsline {subsection}{\numberline {11.1.2}Documenta\IeC {\c t}ia Func\IeC {\c t}iilor Membre}{28}{subsection.11.1.2}}
\newlabel{classJoc_a54976207efdeeb45b42fd639215b65e3}{{11.1.2}{28}{Documentaţia Funcţiilor Membre}{subsection.11.1.2}{}}
\@writefile{toc}{\contentsline {subsubsection}{\numberline {11.1.2.1}incarca()}{29}{subsubsection.11.1.2.1}}
\newlabel{classJoc_ac78ae0ddb45250af612eb68de253861e}{{11.1.2.1}{29}{\texorpdfstring {incarca()}{incarca()}}{subsubsection.11.1.2.1}{}}
\@writefile{toc}{\contentsline {subsubsection}{\numberline {11.1.2.2}incarcat\discretionary {\unhbox \voidb@x \hbox {\relax \fontsize  {7}{8}\selectfont  $\leftarrow \joinrel  \rhook $}}{}{}\_\discretionary {\unhbox \voidb@x \hbox {\relax \fontsize  {7}{8}\selectfont  $\leftarrow \joinrel  \rhook $}}{}{}deja()}{29}{subsubsection.11.1.2.2}}
\newlabel{classJoc_a5b8d52f928137512921eee184ca04fec}{{11.1.2.2}{29}{\texorpdfstring {incarcat\+\_\+deja()}{incarcat\_deja()}}{subsubsection.11.1.2.2}{}}
\@writefile{toc}{\contentsline {subsubsection}{\numberline {11.1.2.3}itereaza()}{29}{subsubsection.11.1.2.3}}
\newlabel{classJoc_afd69d2cd19f6d2ac2b1a42a4685349e6}{{11.1.2.3}{29}{\texorpdfstring {itereaza()}{itereaza()}}{subsubsection.11.1.2.3}{}}
\@writefile{toc}{\contentsline {subsubsection}{\numberline {11.1.2.4}muta\discretionary {\unhbox \voidb@x \hbox {\relax \fontsize  {7}{8}\selectfont  $\leftarrow \joinrel  \rhook $}}{}{}\_\discretionary {\unhbox \voidb@x \hbox {\relax \fontsize  {7}{8}\selectfont  $\leftarrow \joinrel  \rhook $}}{}{}omida()}{30}{subsubsection.11.1.2.4}}
\newlabel{classJoc_a0f90008558e8cbed6537b542f79ae55b}{{11.1.2.4}{30}{\texorpdfstring {muta\+\_\+omida()}{muta\_omida()}}{subsubsection.11.1.2.4}{}}
\@writefile{toc}{\contentsline {subsubsection}{\numberline {11.1.2.5}pauza()}{30}{subsubsection.11.1.2.5}}
\newlabel{classJoc_afe57540f76b33492c721c14726a89d86}{{11.1.2.5}{30}{\texorpdfstring {pauza()}{pauza()}}{subsubsection.11.1.2.5}{}}
\@writefile{toc}{\contentsline {subsubsection}{\numberline {11.1.2.6}verifica\discretionary {\unhbox \voidb@x \hbox {\relax \fontsize  {7}{8}\selectfont  $\leftarrow \joinrel  \rhook $}}{}{}\_\discretionary {\unhbox \voidb@x \hbox {\relax \fontsize  {7}{8}\selectfont  $\leftarrow \joinrel  \rhook $}}{}{}taste\discretionary {\unhbox \voidb@x \hbox {\relax \fontsize  {7}{8}\selectfont  $\leftarrow \joinrel  \rhook $}}{}{}\_\discretionary {\unhbox \voidb@x \hbox {\relax \fontsize  {7}{8}\selectfont  $\leftarrow \joinrel  \rhook $}}{}{}apasate()}{30}{subsubsection.11.1.2.6}}
\@writefile{toc}{\contentsline {subsection}{\numberline {11.1.3}Documenta\IeC {\c t}ia Datelor Membre}{31}{subsection.11.1.3}}
\newlabel{classJoc_a24e667d511404dd6479a86575f0969c2}{{11.1.3}{31}{Documentaţia Datelor Membre}{subsection.11.1.3}{}}
\@writefile{toc}{\contentsline {subsubsection}{\numberline {11.1.3.1}m\discretionary {\unhbox \voidb@x \hbox {\relax \fontsize  {7}{8}\selectfont  $\leftarrow \joinrel  \rhook $}}{}{}\_\discretionary {\unhbox \voidb@x \hbox {\relax \fontsize  {7}{8}\selectfont  $\leftarrow \joinrel  \rhook $}}{}{}timp\discretionary {\unhbox \voidb@x \hbox {\relax \fontsize  {7}{8}\selectfont  $\leftarrow \joinrel  \rhook $}}{}{}\_\discretionary {\unhbox \voidb@x \hbox {\relax \fontsize  {7}{8}\selectfont  $\leftarrow \joinrel  \rhook $}}{}{}asteptat}{31}{subsubsection.11.1.3.1}}
\newlabel{classJoc_af8df04a66ec45e3373dc6961b8f4a7cc}{{11.1.3.1}{31}{\texorpdfstring {m\+\_\+timp\+\_\+asteptat}{m\_timp\_asteptat}}{subsubsection.11.1.3.1}{}}
\@writefile{toc}{\contentsline {subsubsection}{\numberline {11.1.3.2}noua\discretionary {\unhbox \voidb@x \hbox {\relax \fontsize  {7}{8}\selectfont  $\leftarrow \joinrel  \rhook $}}{}{}\_\discretionary {\unhbox \voidb@x \hbox {\relax \fontsize  {7}{8}\selectfont  $\leftarrow \joinrel  \rhook $}}{}{}directie\discretionary {\unhbox \voidb@x \hbox {\relax \fontsize  {7}{8}\selectfont  $\leftarrow \joinrel  \rhook $}}{}{}\_\discretionary {\unhbox \voidb@x \hbox {\relax \fontsize  {7}{8}\selectfont  $\leftarrow \joinrel  \rhook $}}{}{}a\discretionary {\unhbox \voidb@x \hbox {\relax \fontsize  {7}{8}\selectfont  $\leftarrow \joinrel  \rhook $}}{}{}\_\discretionary {\unhbox \voidb@x \hbox {\relax \fontsize  {7}{8}\selectfont  $\leftarrow \joinrel  \rhook $}}{}{}omizii}{31}{subsubsection.11.1.3.2}}
\@writefile{toc}{\contentsline {section}{\numberline {11.2}Referin\IeC {\c t}\IeC {\u a} la clasa Meniu\discretionary {\unhbox \voidb@x \hbox {\relax \fontsize  {7}{8}\selectfont  $\leftarrow \joinrel  \rhook $}}{}{}Final}{31}{section.11.2}}
\newlabel{classMeniuFinal}{{11.2}{31}{Referinţă la clasa Meniu\+Final}{section.11.2}{}}
\newlabel{classMeniuFinal_a1effd96032aadf141533119115dbbe91}{{11.2}{32}{Metode Publice}{section*.10}{}}
\newlabel{classMeniuFinal_a663058fca13b16c502d22ac4ee488cf0}{{11.2}{32}{Metode Private}{section*.11}{}}
\newlabel{classMeniuFinal_aedde998b4a8c6b468d7dc1a4c5af4cbc}{{11.2}{32}{Atribute Private}{section*.12}{}}
\newlabel{classMeniuFinal_a8ca418faf68fa155bc809a325479a02a}{{11.2}{32}{Atribute Private}{section*.12}{}}
\newlabel{classMeniuFinal_a79c050764da86c93f5554265a7567036}{{11.2}{32}{Atribute Private}{section*.12}{}}
\newlabel{classMeniuFinal_a3d0af1b8d2ce9ba4e2013ddb68f5786f}{{11.2}{32}{Atribute Private}{section*.12}{}}
\newlabel{classMeniuFinal_a9dd63e1fb07a20c48cec529f794945a8}{{11.2}{32}{Atribute Private}{section*.12}{}}
\newlabel{classMeniuFinal_a45688213631c7266bb329f301523dfb0}{{11.2}{32}{Atribute Private}{section*.12}{}}
\newlabel{classMeniuFinal_aa940eaec12a96d8a9037cd698c5c2baa}{{11.2}{32}{Atribute Private}{section*.12}{}}
\newlabel{classMeniuFinal_a17611b8f7fb8442187fced397c26875a}{{11.2}{32}{Atribute Private}{section*.12}{}}
\newlabel{classMeniuFinal_a3fd4cb6ddc4cfd8bb84cfad734137d8c}{{11.2}{32}{Atribute Private}{section*.12}{}}
\newlabel{classMeniuFinal_a7e6102d7ba03592db9af4d2ff8a3c0de}{{11.2}{32}{Atribute Private}{section*.12}{}}
\newlabel{classMeniuFinal_af0bf7286afbfcf28139aed5fd426a1c8}{{11.2}{32}{Atribute Private}{section*.12}{}}
\newlabel{classMeniuFinal_a9c703f1f5632ca0acfef05a7030647b5}{{11.2}{32}{Atribute Private}{section*.12}{}}
\@writefile{toc}{\contentsline {subsection}{\numberline {11.2.1}Descriere Detaliat\IeC {\u a}}{32}{subsection.11.2.1}}
\@writefile{toc}{\contentsline {subsection}{\numberline {11.2.2}Documenta\IeC {\c t}ia Func\IeC {\c t}iilor Membre}{33}{subsection.11.2.2}}
\newlabel{classMeniuFinal_a4a1f2a872c6d0cef0e3f0a8e1545f5de}{{11.2.2}{33}{Documentaţia Funcţiilor Membre}{subsection.11.2.2}{}}
\@writefile{toc}{\contentsline {subsubsection}{\numberline {11.2.2.1}incarca()}{33}{subsubsection.11.2.2.1}}
\newlabel{classMeniuFinal_a72edd47d4783b321124d7d7af74b9ef8}{{11.2.2.1}{33}{\texorpdfstring {incarca()}{incarca()}}{subsubsection.11.2.2.1}{}}
\@writefile{toc}{\contentsline {subsubsection}{\numberline {11.2.2.2}incarcat\discretionary {\unhbox \voidb@x \hbox {\relax \fontsize  {7}{8}\selectfont  $\leftarrow \joinrel  \rhook $}}{}{}\_\discretionary {\unhbox \voidb@x \hbox {\relax \fontsize  {7}{8}\selectfont  $\leftarrow \joinrel  \rhook $}}{}{}deja()}{33}{subsubsection.11.2.2.2}}
\newlabel{classMeniuFinal_a9ee1a22d9df62f0828961d38e05f8aa4}{{11.2.2.2}{33}{\texorpdfstring {incarcat\+\_\+deja()}{incarcat\_deja()}}{subsubsection.11.2.2.2}{}}
\@writefile{toc}{\contentsline {subsubsection}{\numberline {11.2.2.3}itereaza()}{33}{subsubsection.11.2.2.3}}
\@writefile{toc}{\contentsline {subsection}{\numberline {11.2.3}Documenta\IeC {\c t}ia Datelor Membre}{33}{subsection.11.2.3}}
\newlabel{classMeniuFinal_a995e013192e1bed67332f0d54ae2b482}{{11.2.3}{33}{Documentaţia Datelor Membre}{subsection.11.2.3}{}}
\@writefile{toc}{\contentsline {subsubsection}{\numberline {11.2.3.1}m\discretionary {\unhbox \voidb@x \hbox {\relax \fontsize  {7}{8}\selectfont  $\leftarrow \joinrel  \rhook $}}{}{}\_\discretionary {\unhbox \voidb@x \hbox {\relax \fontsize  {7}{8}\selectfont  $\leftarrow \joinrel  \rhook $}}{}{}istoric}{34}{subsubsection.11.2.3.1}}
\@writefile{toc}{\contentsline {section}{\numberline {11.3}Referin\IeC {\c t}\IeC {\u a} la clasa Meniu\discretionary {\unhbox \voidb@x \hbox {\relax \fontsize  {7}{8}\selectfont  $\leftarrow \joinrel  \rhook $}}{}{}Start}{34}{section.11.3}}
\newlabel{classMeniuStart}{{11.3}{34}{Referinţă la clasa Meniu\+Start}{section.11.3}{}}
\newlabel{classMeniuStart_abfc0ef10adadd6f9756996fc7c61bf76}{{11.3}{35}{Metode Publice}{section*.15}{}}
\newlabel{classMeniuStart_a9c31d6c8b52efb87116aac4b176f8375}{{11.3}{35}{Tipuri Private}{section*.16}{}}
\newlabel{classMeniuStart_ae81aee43c415d5ea2f07469baa2fcfc1}{{11.3}{35}{Metode Private}{section*.17}{}}
\newlabel{classMeniuStart_a046f60fb2d3a67db5cef26376c69150e}{{11.3}{35}{Metode Private}{section*.17}{}}
\newlabel{classMeniuStart_a9d934fb5c51907f5f0bce6d259cdeb24}{{11.3}{35}{Atribute Private}{section*.18}{}}
\newlabel{classMeniuStart_aea1b80044a1dce077fd9bd052bbfe279}{{11.3}{35}{Atribute Private}{section*.18}{}}
\newlabel{classMeniuStart_a0428348c2459b05e54c32ee3835a80cf}{{11.3}{35}{Atribute Private}{section*.18}{}}
\newlabel{classMeniuStart_acd083e350cda462b27e3cfccc2ca4298}{{11.3}{35}{Atribute Private}{section*.18}{}}
\newlabel{classMeniuStart_a6982327ecd2eb251a25da2651b1ee80a}{{11.3}{35}{Atribute Private}{section*.18}{}}
\newlabel{classMeniuStart_a93aae50a78dc2df745728a2e8b6bbb11}{{11.3}{35}{Atribute Private}{section*.18}{}}
\newlabel{classMeniuStart_a9b6b148717c5fd9f860bc046ecac255c}{{11.3}{35}{Atribute Private}{section*.18}{}}
\@writefile{toc}{\contentsline {subsection}{\numberline {11.3.1}Descriere Detaliat\IeC {\u a}}{35}{subsection.11.3.1}}
\@writefile{toc}{\contentsline {subsection}{\numberline {11.3.2}Documenta\IeC {\c t}ia Func\IeC {\c t}iilor Membre}{35}{subsection.11.3.2}}
\newlabel{classMeniuStart_afb59dcb21968a6ccd685a6c9c0d6a0c1}{{11.3.2}{35}{Documentaţia Funcţiilor Membre}{subsection.11.3.2}{}}
\@writefile{toc}{\contentsline {subsubsection}{\numberline {11.3.2.1}incarca()}{35}{subsubsection.11.3.2.1}}
\newlabel{classMeniuStart_a76d8d1b449800060994971ea9df75fd3}{{11.3.2.1}{35}{\texorpdfstring {incarca()}{incarca()}}{subsubsection.11.3.2.1}{}}
\@writefile{toc}{\contentsline {subsubsection}{\numberline {11.3.2.2}incarcat\discretionary {\unhbox \voidb@x \hbox {\relax \fontsize  {7}{8}\selectfont  $\leftarrow \joinrel  \rhook $}}{}{}\_\discretionary {\unhbox \voidb@x \hbox {\relax \fontsize  {7}{8}\selectfont  $\leftarrow \joinrel  \rhook $}}{}{}deja()}{36}{subsubsection.11.3.2.2}}
\newlabel{classMeniuStart_a35a84c537eca90b76697d1bef88216e5}{{11.3.2.2}{36}{\texorpdfstring {incarcat\+\_\+deja()}{incarcat\_deja()}}{subsubsection.11.3.2.2}{}}
\@writefile{toc}{\contentsline {subsubsection}{\numberline {11.3.2.3}itereaza()}{36}{subsubsection.11.3.2.3}}
\@writefile{toc}{\contentsline {section}{\numberline {11.4}Referin\IeC {\c t}\IeC {\u a} la structura Punct}{36}{section.11.4}}
\newlabel{structPunct}{{11.4}{36}{Referinţă la structura Punct}{section.11.4}{}}
\newlabel{structPunct_a28bb6f2facdfadbf7e19d651c526a646}{{11.4}{36}{Atribute Publice}{section*.20}{}}
\newlabel{structPunct_a065a30931a1d15d6f6c638c4888d254e}{{11.4}{36}{Atribute Publice}{section*.20}{}}
\@writefile{toc}{\contentsline {subsection}{\numberline {11.4.1}Descriere Detaliat\IeC {\u a}}{37}{subsection.11.4.1}}
\@writefile{toc}{\contentsline {subsection}{\numberline {11.4.2}Documenta\IeC {\c t}ia pentru Constructori \IeC {\c s}i Destructori}{37}{subsection.11.4.2}}
\newlabel{structPunct_a04070b9c9925f7f4a117ecec3d3338af}{{11.4.2}{37}{Documentaţia pentru Constructori şi Destructori}{subsection.11.4.2}{}}
\@writefile{toc}{\contentsline {subsubsection}{\numberline {11.4.2.1}Punct()\hspace  {0.1cm}{\relax \fontsize  {8}{9.5}\selectfont  \abovedisplayskip 6\p@ plus2\p@ minus4\p@ \abovedisplayshortskip \z@ plus\p@ \belowdisplayshortskip 3\p@ plus\p@ minus2\p@ \def \leftmargin \leftmargini \parsep 4\p@ plus2\p@ minus\p@ \topsep 8\p@ plus2\p@ minus4\p@ \itemsep 4\p@ plus2\p@ minus\p@ {\leftmargin \leftmargini \topsep 3\p@ plus\p@ minus\p@ \parsep 2\p@ plus\p@ minus\p@ \itemsep \parsep }\belowdisplayskip \abovedisplayskip \ttfamily  [1/3]}}{37}{subsubsection.11.4.2.1}}
\newlabel{structPunct_a2ff34bc87cb16eae3d747ff63d51bff0}{{11.4.2.1}{37}{\texorpdfstring {Punct()}{Punct()}\hspace {0.1cm}{\footnotesize \ttfamily [1/3]}}{subsubsection.11.4.2.1}{}}
\@writefile{toc}{\contentsline {subsubsection}{\numberline {11.4.2.2}Punct()\hspace  {0.1cm}{\relax \fontsize  {8}{9.5}\selectfont  \abovedisplayskip 6\p@ plus2\p@ minus4\p@ \abovedisplayshortskip \z@ plus\p@ \belowdisplayshortskip 3\p@ plus\p@ minus2\p@ \def \leftmargin \leftmargini \parsep 4\p@ plus2\p@ minus\p@ \topsep 8\p@ plus2\p@ minus4\p@ \itemsep 4\p@ plus2\p@ minus\p@ {\leftmargin \leftmargini \topsep 3\p@ plus\p@ minus\p@ \parsep 2\p@ plus\p@ minus\p@ \itemsep \parsep }\belowdisplayskip \abovedisplayskip \ttfamily  [2/3]}}{37}{subsubsection.11.4.2.2}}
\newlabel{structPunct_afa529a8fdfbc33103f357f754ba4105e}{{11.4.2.2}{37}{\texorpdfstring {Punct()}{Punct()}\hspace {0.1cm}{\footnotesize \ttfamily [2/3]}}{subsubsection.11.4.2.2}{}}
\@writefile{toc}{\contentsline {subsubsection}{\numberline {11.4.2.3}Punct()\hspace  {0.1cm}{\relax \fontsize  {8}{9.5}\selectfont  \abovedisplayskip 6\p@ plus2\p@ minus4\p@ \abovedisplayshortskip \z@ plus\p@ \belowdisplayshortskip 3\p@ plus\p@ minus2\p@ \def \leftmargin \leftmargini \parsep 4\p@ plus2\p@ minus\p@ \topsep 8\p@ plus2\p@ minus4\p@ \itemsep 4\p@ plus2\p@ minus\p@ {\leftmargin \leftmargini \topsep 3\p@ plus\p@ minus\p@ \parsep 2\p@ plus\p@ minus\p@ \itemsep \parsep }\belowdisplayskip \abovedisplayskip \ttfamily  [3/3]}}{38}{subsubsection.11.4.2.3}}
\@writefile{toc}{\contentsline {section}{\numberline {11.5}Referin\IeC {\c t}\IeC {\u a} la clasa Scena}{38}{section.11.5}}
\newlabel{classScena}{{11.5}{38}{Referinţă la clasa Scena}{section.11.5}{}}
\newlabel{classScena_a6c1ec6a3ed0acc18f71e9b8a2c077f7a}{{11.5}{38}{Metode Publice}{section*.22}{}}
\@writefile{toc}{\contentsline {subsection}{\numberline {11.5.1}Descriere Detaliat\IeC {\u a}}{38}{subsection.11.5.1}}
\@writefile{toc}{\contentsline {subsection}{\numberline {11.5.2}Documenta\IeC {\c t}ia Func\IeC {\c t}iilor Membre}{39}{subsection.11.5.2}}
\newlabel{classScena_a6f53a1dcef68084361dc8f9d56bbb8c0}{{11.5.2}{39}{Documentaţia Funcţiilor Membre}{subsection.11.5.2}{}}
\@writefile{toc}{\contentsline {subsubsection}{\numberline {11.5.2.1}incarca()}{39}{subsubsection.11.5.2.1}}
\newlabel{classScena_ac8de771024795dffa0e5feb8dba881ff}{{11.5.2.1}{39}{\texorpdfstring {incarca()}{incarca()}}{subsubsection.11.5.2.1}{}}
\@writefile{toc}{\contentsline {subsubsection}{\numberline {11.5.2.2}incarcat\discretionary {\unhbox \voidb@x \hbox {\relax \fontsize  {7}{8}\selectfont  $\leftarrow \joinrel  \rhook $}}{}{}\_\discretionary {\unhbox \voidb@x \hbox {\relax \fontsize  {7}{8}\selectfont  $\leftarrow \joinrel  \rhook $}}{}{}deja()}{39}{subsubsection.11.5.2.2}}
\newlabel{classScena_a9e5fcc831ed410b5b2422231ede746ee}{{11.5.2.2}{39}{\texorpdfstring {incarcat\+\_\+deja()}{incarcat\_deja()}}{subsubsection.11.5.2.2}{}}
\@writefile{toc}{\contentsline {subsubsection}{\numberline {11.5.2.3}itereaza()}{39}{subsubsection.11.5.2.3}}
\@writefile{toc}{\contentsline {section}{\numberline {11.6}Referin\IeC {\c t}\IeC {\u a} la clasa Stadiul\discretionary {\unhbox \voidb@x \hbox {\relax \fontsize  {7}{8}\selectfont  $\leftarrow \joinrel  \rhook $}}{}{}Jocului}{40}{section.11.6}}
\newlabel{classStadiulJocului}{{11.6}{40}{Referinţă la clasa Stadiul\+Jocului}{section.11.6}{}}
\newlabel{classStadiulJocului_a141067404f3678036ee7a91a02532a30}{{11.6}{40}{Atribute Publice}{section*.24}{}}
\newlabel{classStadiulJocului_af47424386a19c4f87d45843896a39564}{{11.6}{40}{Atribute Publice}{section*.24}{}}
\newlabel{classStadiulJocului_a338b9e5467ad6d4d355c3978e04d32d6}{{11.6}{40}{Atribute Publice}{section*.24}{}}
\newlabel{classStadiulJocului_a80f225be50024541c53fe7f3d508571e}{{11.6}{40}{Atribute Publice}{section*.24}{}}
\newlabel{classStadiulJocului_a1e7f3685bac572dc18cda0182fd376be}{{11.6}{40}{Atribute Publice}{section*.24}{}}
\newlabel{classStadiulJocului_a468205051b2d772552dcbd85da88194e}{{11.6}{40}{Atribute Publice}{section*.24}{}}
\newlabel{classStadiulJocului_a2c786c42b52f98153c834751143a03f0}{{11.6}{40}{Atribute Publice}{section*.24}{}}
\newlabel{classStadiulJocului_ab1c4b5d772a958860c7d880605cff1a9}{{11.6}{40}{Atribute Publice}{section*.24}{}}
\newlabel{classStadiulJocului_ab1b866a96905e3491008c1e7268d9983}{{11.6}{41}{Atribute Statice Publice}{section*.25}{}}
\newlabel{classStadiulJocului_a19203356f61f0f11191445347092bd3c}{{11.6}{41}{Atribute Statice Publice}{section*.25}{}}
\newlabel{classStadiulJocului_a59c1dd4044856f47e36291c474f99040}{{11.6}{41}{Atribute Statice Publice}{section*.25}{}}
\newlabel{classStadiulJocului_a4cdf9582b472e74980e1eee73ca94769}{{11.6}{41}{Atribute Statice Publice}{section*.25}{}}
\@writefile{toc}{\contentsline {subsection}{\numberline {11.6.1}Descriere Detaliat\IeC {\u a}}{41}{subsection.11.6.1}}
\@writefile{toc}{\contentsline {subsection}{\numberline {11.6.2}Documenta\IeC {\c t}ia Datelor Membre}{41}{subsection.11.6.2}}
\newlabel{classStadiulJocului_a79d2c301f57a7fc525534994ffd7057e}{{11.6.2}{41}{Documentaţia Datelor Membre}{subsection.11.6.2}{}}
\@writefile{toc}{\contentsline {subsubsection}{\numberline {11.6.2.1}directia\discretionary {\unhbox \voidb@x \hbox {\relax \fontsize  {7}{8}\selectfont  $\leftarrow \joinrel  \rhook $}}{}{}\_\discretionary {\unhbox \voidb@x \hbox {\relax \fontsize  {7}{8}\selectfont  $\leftarrow \joinrel  \rhook $}}{}{}omizii}{41}{subsubsection.11.6.2.1}}
\newlabel{classStadiulJocului_ad66a6d4dd8dcbebe7df6098696f205a5}{{11.6.2.1}{41}{\texorpdfstring {directia\+\_\+omizii}{directia\_omizii}}{subsubsection.11.6.2.1}{}}
\@writefile{toc}{\contentsline {subsubsection}{\numberline {11.6.2.2}lungime\discretionary {\unhbox \voidb@x \hbox {\relax \fontsize  {7}{8}\selectfont  $\leftarrow \joinrel  \rhook $}}{}{}\_\discretionary {\unhbox \voidb@x \hbox {\relax \fontsize  {7}{8}\selectfont  $\leftarrow \joinrel  \rhook $}}{}{}textura}{41}{subsubsection.11.6.2.2}}
\newlabel{classStadiulJocului_a9e472dcc33fa67d1b5e000576133c3ac}{{11.6.2.2}{41}{\texorpdfstring {lungime\+\_\+textura}{lungime\_textura}}{subsubsection.11.6.2.2}{}}
\@writefile{toc}{\contentsline {subsubsection}{\numberline {11.6.2.3}pozitie\discretionary {\unhbox \voidb@x \hbox {\relax \fontsize  {7}{8}\selectfont  $\leftarrow \joinrel  \rhook $}}{}{}\_\discretionary {\unhbox \voidb@x \hbox {\relax \fontsize  {7}{8}\selectfont  $\leftarrow \joinrel  \rhook $}}{}{}powerup}{42}{subsubsection.11.6.2.3}}
\newlabel{classStadiulJocului_a64e0608d9c68b22ea83fd5aba209453f}{{11.6.2.3}{42}{\texorpdfstring {pozitie\+\_\+powerup}{pozitie\_powerup}}{subsubsection.11.6.2.3}{}}
\@writefile{toc}{\contentsline {subsubsection}{\numberline {11.6.2.4}pozitii\discretionary {\unhbox \voidb@x \hbox {\relax \fontsize  {7}{8}\selectfont  $\leftarrow \joinrel  \rhook $}}{}{}\_\discretionary {\unhbox \voidb@x \hbox {\relax \fontsize  {7}{8}\selectfont  $\leftarrow \joinrel  \rhook $}}{}{}omida}{42}{subsubsection.11.6.2.4}}
\newlabel{classStadiulJocului_a1c96d2d1fdcc40bf7c111f549f14ccb5}{{11.6.2.4}{42}{\texorpdfstring {pozitii\+\_\+omida}{pozitii\_omida}}{subsubsection.11.6.2.4}{}}
\@writefile{toc}{\contentsline {subsubsection}{\numberline {11.6.2.5}scor}{42}{subsubsection.11.6.2.5}}
\newlabel{classStadiulJocului_a2e71823589e83f16593f8a2870c065e6}{{11.6.2.5}{42}{\texorpdfstring {scor}{scor}}{subsubsection.11.6.2.5}{}}
\@writefile{toc}{\contentsline {subsubsection}{\numberline {11.6.2.6}teren}{42}{subsubsection.11.6.2.6}}
\@writefile{toc}{\contentsline {chapter}{\numberline {12}Documenta\IeC {\c t}ia Fi\IeC {\c s}ierelor}{43}{chapter.12}}
\@writefile{lof}{\addvspace {10\p@ }}
\@writefile{lot}{\addvspace {10\p@ }}
\@writefile{toc}{\contentsline {section}{\numberline {12.1}Referin\IeC {\c t}\IeC {\u a} la fi\IeC {\c s}ierul main.\discretionary {\unhbox \voidb@x \hbox {\relax \fontsize  {7}{8}\selectfont  $\leftarrow \joinrel  \rhook $}}{}{}cpp}{43}{section.12.1}}
\newlabel{main_8cpp}{{12.1}{43}{Referinţă la fişierul main.\+cpp}{section.12.1}{}}
\newlabel{main_8cpp_aea66a0d525bf9bfb9b61e9cc1ba0b752}{{12.1}{44}{Enumerări}{section*.29}{}}
\newlabel{main_8cpp_a9f45632ef14236ddbaf284dc70cd2287}{{12.1}{44}{Funcţii}{section*.30}{}}
\newlabel{main_8cpp_a45c775a13d22397f62c6a3b31133e01d}{{12.1}{44}{Funcţii}{section*.30}{}}
\newlabel{main_8cpp_a413026ec29c72f01082ed5c2235ac9cd}{{12.1}{44}{Funcţii}{section*.30}{}}
\newlabel{main_8cpp_aee9c78f8a1bd879050f1bafc2bb907ce}{{12.1}{44}{Funcţii}{section*.30}{}}
\newlabel{main_8cpp_ab93314a433d2cc641ea873947bc59df3}{{12.1}{44}{Funcţii}{section*.30}{}}
\newlabel{main_8cpp_ad85beba6ce14e67569c227c8af4d5186}{{12.1}{44}{Funcţii}{section*.30}{}}
\newlabel{main_8cpp_a2f4fa91987e3731c64b385dc822f4425}{{12.1}{44}{Funcţii}{section*.30}{}}
\newlabel{main_8cpp_a409b453676d92d35f214bc5bacab83d4}{{12.1}{44}{Funcţii}{section*.30}{}}
\newlabel{namespaceglobal_a07963dc89966c80411e6a3c896c07c10}{{12.1}{44}{Variabile}{section*.31}{}}
\newlabel{namespaceglobal_a5ad71f80dc82eb6fd1036c8055a5dfbc}{{12.1}{44}{Variabile}{section*.31}{}}
\newlabel{namespaceglobal_a612e7b296f148c02400618f1770f57f7}{{12.1}{44}{Variabile}{section*.31}{}}
\gdef \LT@i {\LT@entry 
    {3}{24.79999pt}\LT@entry 
    {3}{16.89996pt}\LT@entry 
    {3}{282.24995pt}}
\@writefile{toc}{\contentsline {subsection}{\numberline {12.1.1}Documenta\IeC {\c t}ia enumer\IeC {\u a}rilor}{45}{subsection.12.1.1}}
\newlabel{main_8cpp_a67b02df562611307c1e3adeace56d13e}{{12.1.1}{45}{Documentaţia enumerărilor}{subsection.12.1.1}{}}
\@writefile{toc}{\contentsline {subsubsection}{\numberline {12.1.1.1}Posibilitate\discretionary {\unhbox \voidb@x \hbox {\relax \fontsize  {7}{8}\selectfont  $\leftarrow \joinrel  \rhook $}}{}{}Teren}{45}{subsubsection.12.1.1.1}}
\@writefile{toc}{\contentsline {subsection}{\numberline {12.1.2}Documenta\IeC {\c t}ia func\IeC {\c t}iilor}{45}{subsection.12.1.2}}
\newlabel{main_8cpp_af7eff58280fc6fe66098325981310609}{{12.1.2}{45}{Documentaţia funcţiilor}{subsection.12.1.2}{}}
\@writefile{toc}{\contentsline {subsubsection}{\numberline {12.1.2.1}deseneaza\discretionary {\unhbox \voidb@x \hbox {\relax \fontsize  {7}{8}\selectfont  $\leftarrow \joinrel  \rhook $}}{}{}\_\discretionary {\unhbox \voidb@x \hbox {\relax \fontsize  {7}{8}\selectfont  $\leftarrow \joinrel  \rhook $}}{}{}cap()}{45}{subsubsection.12.1.2.1}}
\newlabel{main_8cpp_aa57c630272aa6ab8ab15552adf8c165e}{{12.1.2.1}{45}{\texorpdfstring {deseneaza\+\_\+cap()}{deseneaza\_cap()}}{table.12.1}{}}
\@writefile{toc}{\contentsline {subsubsection}{\numberline {12.1.2.2}deseneaza\discretionary {\unhbox \voidb@x \hbox {\relax \fontsize  {7}{8}\selectfont  $\leftarrow \joinrel  \rhook $}}{}{}\_\discretionary {\unhbox \voidb@x \hbox {\relax \fontsize  {7}{8}\selectfont  $\leftarrow \joinrel  \rhook $}}{}{}omida()}{45}{subsubsection.12.1.2.2}}
\newlabel{main_8cpp_a5f6f5f86af147286478cc7aadd76b0a2}{{12.1.2.2}{46}{\texorpdfstring {deseneaza\+\_\+omida()}{deseneaza\_omida()}}{subsubsection.12.1.2.2}{}}
\@writefile{toc}{\contentsline {subsubsection}{\numberline {12.1.2.3}genereaza\discretionary {\unhbox \voidb@x \hbox {\relax \fontsize  {7}{8}\selectfont  $\leftarrow \joinrel  \rhook $}}{}{}\_\discretionary {\unhbox \voidb@x \hbox {\relax \fontsize  {7}{8}\selectfont  $\leftarrow \joinrel  \rhook $}}{}{}pozitie\discretionary {\unhbox \voidb@x \hbox {\relax \fontsize  {7}{8}\selectfont  $\leftarrow \joinrel  \rhook $}}{}{}\_\discretionary {\unhbox \voidb@x \hbox {\relax \fontsize  {7}{8}\selectfont  $\leftarrow \joinrel  \rhook $}}{}{}noua()}{46}{subsubsection.12.1.2.3}}
\newlabel{main_8cpp_a81cdc1223b468897943076b72f048133}{{12.1.2.3}{46}{\texorpdfstring {genereaza\+\_\+pozitie\+\_\+noua()}{genereaza\_pozitie\_noua()}}{subsubsection.12.1.2.3}{}}
\@writefile{toc}{\contentsline {subsubsection}{\numberline {12.1.2.4}initializeaza()}{46}{subsubsection.12.1.2.4}}
\newlabel{main_8cpp_ae66f6b31b5ad750f1fe042a706a4e3d4}{{12.1.2.4}{46}{\texorpdfstring {initializeaza()}{initializeaza()}}{subsubsection.12.1.2.4}{}}
\@writefile{toc}{\contentsline {subsubsection}{\numberline {12.1.2.5}main()}{46}{subsubsection.12.1.2.5}}
\newlabel{main_8cpp_a525009107790f4daffd5481e33cb039f}{{12.1.2.5}{46}{\texorpdfstring {main()}{main()}}{subsubsection.12.1.2.5}{}}
\@writefile{toc}{\contentsline {subsubsection}{\numberline {12.1.2.6}marcheaza\discretionary {\unhbox \voidb@x \hbox {\relax \fontsize  {7}{8}\selectfont  $\leftarrow \joinrel  \rhook $}}{}{}\_\discretionary {\unhbox \voidb@x \hbox {\relax \fontsize  {7}{8}\selectfont  $\leftarrow \joinrel  \rhook $}}{}{}frunza()}{47}{subsubsection.12.1.2.6}}
\@writefile{toc}{\contentsline {subsection}{\numberline {12.1.3}Documenta\IeC {\c t}ia variabilelor}{47}{subsection.12.1.3}}
\newlabel{main_8cpp_a68e903f0d20f0a68b3c01b73eb34e9ed}{{12.1.3}{47}{Documentaţia variabilelor}{subsection.12.1.3}{}}
\@writefile{toc}{\contentsline {subsubsection}{\numberline {12.1.3.1}directie}{47}{subsubsection.12.1.3.1}}
\@writefile{toc}{\contentsline {chapter}{Index}{49}{section*.32}}
